# compile verilog/system verilog design source files
verilog xil_defaultlib  --include "../../../../../tdc_uart.srcs/sources_1/ip/clk_wiz_0" \
"n4bit_carry_chain_tb_time_impl.v" \

# Do not sort compile order
nosort
