# compile vhdl design source files
vhdl xil_defaultlib  \
"tdc_tb_func_impl.vhd" \
"../../../../../../Projects/Arty/tdc/tdc/binary_counter.vhd" \
"../../../../../../Projects/Arty/tdc/tdc/nbit_register.vhd" \
"../../../../../../Projects/Arty/tdc/tdc/hammin_weight_cnter.vhd" \
"../../../../../../Projects/Arty/tdc/tdc/calc_unit.vhd" \
"../../../../../../Projects/Arty/tdc/tdc/n4bit_carry_chain.vhd" \
"../../../../../../Projects/Arty/tdc/tdc/tdc.vhd" \
"../../../../../../Projects/Arty/tdc/tdc/tdc_tb.vhd" \

# Do not sort compile order
nosort
