# compile vhdl design source files
vhdl xil_defaultlib  \
"../../../../../../Projects/Arty/tdc/tdc/nbit_register.vhd" \
"../../../../../../Projects/Arty/tdc/tdc/n4bit_carry_chain.vhd" \
"../../../../../../Projects/Arty/tdc/tdc/n4bit_carry_chain_tb.vhd" \

# Do not sort compile order
nosort
